60 120
7 11 2
48 571 2
32 49 2
14 53 3
47 39 3
10 12 2
19 47 1
47 15 2
0 50 3
38 19 3
32 5 3
5 44 3
13 37 3
32 35 5
54 52 4
41 46 3
37 46 2
19 53 1
30 22 2
52 31 4
42 7 5
25 5 4
25 46 4
3 28 3
11 20 3
0 54 1
13 31 2
1 21 2
44 37 5
23 9 4
39 53 2
10 3 3
31 36 3
51 14 2
9 10 1
54 29 2
51 16 3
46 57 3
41 59 3
50 1 2
36 47 2
16 17 2
53 4 1
6 18 2
55 14 3
17 45 3
40 43 5
22 19 3
19 31 4
0 31 3
29 23 1
24 49 1
3 45 1
24 27 1
49 35 2
41 2 2
31 14 2
2 7 2
8 46 2
58 31 2
15 38 2
34 50 2
26 56 2
37 42 2
18 14 2
12 8 2
36 27 2
20 2 2
35 58 2
24 0 2
12 25 2
23 44 2
28 10 2
19 36 2
45 48 2
9 12 2
57 40 1
53 26 2
43 51 4
29 33 2
22 31 3
55 41 3
28 34 3
21 6 2
15 27 1
7 1 1
40 16 2
14 4 5
0 29 5
38 39 5
48 51 4
37 53 3
5 48 3
35 52 2
59 44 2
50 23 2
57 51 1
4 39 2
2 55 4
29 31 3
38 13 2
33 32 1
5 10 1
5 34 2
39 18 3
52 58 3
48 8 4
56 21 4
56 1 4
20 51 3
23 39 1
34 10 2
58 24 5
5 14 4
27 30 3
1 14 1
23 37 3
35 31 2
15 30 2
9 28 1